(['/Users/shurf/tmp_mail/tmp_mail.py'],
 ['/Users/shurf/tmp_mail'],
 ['codecs'],
 ['/Library/Frameworks/Python.framework/Versions/3.11/lib/python3.11/site-packages/_pyinstaller_hooks_contrib/hooks/stdhooks',
  '/Library/Frameworks/Python.framework/Versions/3.11/lib/python3.11/site-packages/_pyinstaller_hooks_contrib/hooks/stdhooks/__pycache__',
  '/Library/Frameworks/Python.framework/Versions/3.11/lib/python3.11/site-packages/_pyinstaller_hooks_contrib/hooks/rthooks',
  '/Library/Frameworks/Python.framework/Versions/3.11/lib/python3.11/site-packages/_pyinstaller_hooks_contrib/hooks/rthooks/__pycache__',
  '/Library/Frameworks/Python.framework/Versions/3.11/lib/python3.11/site-packages/_pyinstaller_hooks_contrib/hooks',
  '/Library/Frameworks/Python.framework/Versions/3.11/lib/python3.11/site-packages/numpy/_pyinstaller'],
 {},
 [],
 [],
 False,
 False,
 False,
 {},
 '3.11.1 (v3.11.1:a7a450f84a, Dec  6 2022, 15:24:06) [Clang 13.0.0 '
 '(clang-1300.0.29.30)]',
 [('pyi_rth_inspect',
   '/Library/Frameworks/Python.framework/Versions/3.11/lib/python3.11/site-packages/PyInstaller/hooks/rthooks/pyi_rth_inspect.py',
   'PYSOURCE'),
  ('tmp_mail', '/Users/shurf/tmp_mail/tmp_mail.py', 'PYSOURCE')],
 [('inspect',
   '/Library/Frameworks/Python.framework/Versions/3.11/lib/python3.11/inspect.py',
   'PYMODULE'),
  ('importlib',
   '/Library/Frameworks/Python.framework/Versions/3.11/lib/python3.11/importlib/__init__.py',
   'PYMODULE'),
  ('importlib._bootstrap_external',
   '/Library/Frameworks/Python.framework/Versions/3.11/lib/python3.11/importlib/_bootstrap_external.py',
   'PYMODULE'),
  ('importlib.metadata',
   '/Library/Frameworks/Python.framework/Versions/3.11/lib/python3.11/importlib/metadata/__init__.py',
   'PYMODULE'),
  ('typing',
   '/Library/Frameworks/Python.framework/Versions/3.11/lib/python3.11/typing.py',
   'PYMODULE'),
  ('importlib.abc',
   '/Library/Frameworks/Python.framework/Versions/3.11/lib/python3.11/importlib/abc.py',
   'PYMODULE'),
  ('importlib.resources.abc',
   '/Library/Frameworks/Python.framework/Versions/3.11/lib/python3.11/importlib/resources/abc.py',
   'PYMODULE'),
  ('importlib.resources',
   '/Library/Frameworks/Python.framework/Versions/3.11/lib/python3.11/importlib/resources/__init__.py',
   'PYMODULE'),
  ('importlib.resources._legacy',
   '/Library/Frameworks/Python.framework/Versions/3.11/lib/python3.11/importlib/resources/_legacy.py',
   'PYMODULE'),
  ('importlib.resources._common',
   '/Library/Frameworks/Python.framework/Versions/3.11/lib/python3.11/importlib/resources/_common.py',
   'PYMODULE'),
  ('importlib.resources._adapters',
   '/Library/Frameworks/Python.framework/Versions/3.11/lib/python3.11/importlib/resources/_adapters.py',
   'PYMODULE'),
  ('tempfile',
   '/Library/Frameworks/Python.framework/Versions/3.11/lib/python3.11/tempfile.py',
   'PYMODULE'),
  ('shutil',
   '/Library/Frameworks/Python.framework/Versions/3.11/lib/python3.11/shutil.py',
   'PYMODULE'),
  ('tarfile',
   '/Library/Frameworks/Python.framework/Versions/3.11/lib/python3.11/tarfile.py',
   'PYMODULE'),
  ('gzip',
   '/Library/Frameworks/Python.framework/Versions/3.11/lib/python3.11/gzip.py',
   'PYMODULE'),
  ('_compression',
   '/Library/Frameworks/Python.framework/Versions/3.11/lib/python3.11/_compression.py',
   'PYMODULE'),
  ('copy',
   '/Library/Frameworks/Python.framework/Versions/3.11/lib/python3.11/copy.py',
   'PYMODULE'),
  ('struct',
   '/Library/Frameworks/Python.framework/Versions/3.11/lib/python3.11/struct.py',
   'PYMODULE'),
  ('lzma',
   '/Library/Frameworks/Python.framework/Versions/3.11/lib/python3.11/lzma.py',
   'PYMODULE'),
  ('bz2',
   '/Library/Frameworks/Python.framework/Versions/3.11/lib/python3.11/bz2.py',
   'PYMODULE'),
  ('importlib._abc',
   '/Library/Frameworks/Python.framework/Versions/3.11/lib/python3.11/importlib/_abc.py',
   'PYMODULE'),
  ('contextlib',
   '/Library/Frameworks/Python.framework/Versions/3.11/lib/python3.11/contextlib.py',
   'PYMODULE'),
  ('importlib.metadata._itertools',
   '/Library/Frameworks/Python.framework/Versions/3.11/lib/python3.11/importlib/metadata/_itertools.py',
   'PYMODULE'),
  ('importlib.metadata._functools',
   '/Library/Frameworks/Python.framework/Versions/3.11/lib/python3.11/importlib/metadata/_functools.py',
   'PYMODULE'),
  ('importlib.metadata._collections',
   '/Library/Frameworks/Python.framework/Versions/3.11/lib/python3.11/importlib/metadata/_collections.py',
   'PYMODULE'),
  ('importlib.metadata._meta',
   '/Library/Frameworks/Python.framework/Versions/3.11/lib/python3.11/importlib/metadata/_meta.py',
   'PYMODULE'),
  ('importlib.metadata._adapters',
   '/Library/Frameworks/Python.framework/Versions/3.11/lib/python3.11/importlib/metadata/_adapters.py',
   'PYMODULE'),
  ('importlib.metadata._text',
   '/Library/Frameworks/Python.framework/Versions/3.11/lib/python3.11/importlib/metadata/_text.py',
   'PYMODULE'),
  ('email.message',
   '/Library/Frameworks/Python.framework/Versions/3.11/lib/python3.11/email/message.py',
   'PYMODULE'),
  ('email.policy',
   '/Library/Frameworks/Python.framework/Versions/3.11/lib/python3.11/email/policy.py',
   'PYMODULE'),
  ('email.contentmanager',
   '/Library/Frameworks/Python.framework/Versions/3.11/lib/python3.11/email/contentmanager.py',
   'PYMODULE'),
  ('email.quoprimime',
   '/Library/Frameworks/Python.framework/Versions/3.11/lib/python3.11/email/quoprimime.py',
   'PYMODULE'),
  ('email.headerregistry',
   '/Library/Frameworks/Python.framework/Versions/3.11/lib/python3.11/email/headerregistry.py',
   'PYMODULE'),
  ('email._header_value_parser',
   '/Library/Frameworks/Python.framework/Versions/3.11/lib/python3.11/email/_header_value_parser.py',
   'PYMODULE'),
  ('email.iterators',
   '/Library/Frameworks/Python.framework/Versions/3.11/lib/python3.11/email/iterators.py',
   'PYMODULE'),
  ('email.generator',
   '/Library/Frameworks/Python.framework/Versions/3.11/lib/python3.11/email/generator.py',
   'PYMODULE'),
  ('email._encoded_words',
   '/Library/Frameworks/Python.framework/Versions/3.11/lib/python3.11/email/_encoded_words.py',
   'PYMODULE'),
  ('base64',
   '/Library/Frameworks/Python.framework/Versions/3.11/lib/python3.11/base64.py',
   'PYMODULE'),
  ('getopt',
   '/Library/Frameworks/Python.framework/Versions/3.11/lib/python3.11/getopt.py',
   'PYMODULE'),
  ('gettext',
   '/Library/Frameworks/Python.framework/Versions/3.11/lib/python3.11/gettext.py',
   'PYMODULE'),
  ('email.charset',
   '/Library/Frameworks/Python.framework/Versions/3.11/lib/python3.11/email/charset.py',
   'PYMODULE'),
  ('email.encoders',
   '/Library/Frameworks/Python.framework/Versions/3.11/lib/python3.11/email/encoders.py',
   'PYMODULE'),
  ('email.base64mime',
   '/Library/Frameworks/Python.framework/Versions/3.11/lib/python3.11/email/base64mime.py',
   'PYMODULE'),
  ('email._policybase',
   '/Library/Frameworks/Python.framework/Versions/3.11/lib/python3.11/email/_policybase.py',
   'PYMODULE'),
  ('email.header',
   '/Library/Frameworks/Python.framework/Versions/3.11/lib/python3.11/email/header.py',
   'PYMODULE'),
  ('email.errors',
   '/Library/Frameworks/Python.framework/Versions/3.11/lib/python3.11/email/errors.py',
   'PYMODULE'),
  ('email.utils',
   '/Library/Frameworks/Python.framework/Versions/3.11/lib/python3.11/email/utils.py',
   'PYMODULE'),
  ('email._parseaddr',
   '/Library/Frameworks/Python.framework/Versions/3.11/lib/python3.11/email/_parseaddr.py',
   'PYMODULE'),
  ('calendar',
   '/Library/Frameworks/Python.framework/Versions/3.11/lib/python3.11/calendar.py',
   'PYMODULE'),
  ('datetime',
   '/Library/Frameworks/Python.framework/Versions/3.11/lib/python3.11/datetime.py',
   'PYMODULE'),
  ('_strptime',
   '/Library/Frameworks/Python.framework/Versions/3.11/lib/python3.11/_strptime.py',
   'PYMODULE'),
  ('socket',
   '/Library/Frameworks/Python.framework/Versions/3.11/lib/python3.11/socket.py',
   'PYMODULE'),
  ('selectors',
   '/Library/Frameworks/Python.framework/Versions/3.11/lib/python3.11/selectors.py',
   'PYMODULE'),
  ('quopri',
   '/Library/Frameworks/Python.framework/Versions/3.11/lib/python3.11/quopri.py',
   'PYMODULE'),
  ('textwrap',
   '/Library/Frameworks/Python.framework/Versions/3.11/lib/python3.11/textwrap.py',
   'PYMODULE'),
  ('zipfile',
   '/Library/Frameworks/Python.framework/Versions/3.11/lib/python3.11/zipfile.py',
   'PYMODULE'),
  ('py_compile',
   '/Library/Frameworks/Python.framework/Versions/3.11/lib/python3.11/py_compile.py',
   'PYMODULE'),
  ('threading',
   '/Library/Frameworks/Python.framework/Versions/3.11/lib/python3.11/threading.py',
   'PYMODULE'),
  ('_threading_local',
   '/Library/Frameworks/Python.framework/Versions/3.11/lib/python3.11/_threading_local.py',
   'PYMODULE'),
  ('importlib.util',
   '/Library/Frameworks/Python.framework/Versions/3.11/lib/python3.11/importlib/util.py',
   'PYMODULE'),
  ('email',
   '/Library/Frameworks/Python.framework/Versions/3.11/lib/python3.11/email/__init__.py',
   'PYMODULE'),
  ('email.parser',
   '/Library/Frameworks/Python.framework/Versions/3.11/lib/python3.11/email/parser.py',
   'PYMODULE'),
  ('email.feedparser',
   '/Library/Frameworks/Python.framework/Versions/3.11/lib/python3.11/email/feedparser.py',
   'PYMODULE'),
  ('csv',
   '/Library/Frameworks/Python.framework/Versions/3.11/lib/python3.11/csv.py',
   'PYMODULE'),
  ('importlib.readers',
   '/Library/Frameworks/Python.framework/Versions/3.11/lib/python3.11/importlib/readers.py',
   'PYMODULE'),
  ('importlib.resources.readers',
   '/Library/Frameworks/Python.framework/Versions/3.11/lib/python3.11/importlib/resources/readers.py',
   'PYMODULE'),
  ('importlib.resources._itertools',
   '/Library/Frameworks/Python.framework/Versions/3.11/lib/python3.11/importlib/resources/_itertools.py',
   'PYMODULE'),
  ('importlib._bootstrap',
   '/Library/Frameworks/Python.framework/Versions/3.11/lib/python3.11/importlib/_bootstrap.py',
   'PYMODULE'),
  ('argparse',
   '/Library/Frameworks/Python.framework/Versions/3.11/lib/python3.11/argparse.py',
   'PYMODULE'),
  ('importlib.machinery',
   '/Library/Frameworks/Python.framework/Versions/3.11/lib/python3.11/importlib/machinery.py',
   'PYMODULE'),
  ('dis',
   '/Library/Frameworks/Python.framework/Versions/3.11/lib/python3.11/dis.py',
   'PYMODULE'),
  ('opcode',
   '/Library/Frameworks/Python.framework/Versions/3.11/lib/python3.11/opcode.py',
   'PYMODULE'),
  ('ast',
   '/Library/Frameworks/Python.framework/Versions/3.11/lib/python3.11/ast.py',
   'PYMODULE'),
  ('_py_abc',
   '/Library/Frameworks/Python.framework/Versions/3.11/lib/python3.11/_py_abc.py',
   'PYMODULE'),
  ('stringprep',
   '/Library/Frameworks/Python.framework/Versions/3.11/lib/python3.11/stringprep.py',
   'PYMODULE'),
  ('getpass',
   '/Library/Frameworks/Python.framework/Versions/3.11/lib/python3.11/getpass.py',
   'PYMODULE'),
  ('nturl2path',
   '/Library/Frameworks/Python.framework/Versions/3.11/lib/python3.11/nturl2path.py',
   'PYMODULE'),
  ('ftplib',
   '/Library/Frameworks/Python.framework/Versions/3.11/lib/python3.11/ftplib.py',
   'PYMODULE'),
  ('netrc',
   '/Library/Frameworks/Python.framework/Versions/3.11/lib/python3.11/netrc.py',
   'PYMODULE'),
  ('shlex',
   '/Library/Frameworks/Python.framework/Versions/3.11/lib/python3.11/shlex.py',
   'PYMODULE'),
  ('mimetypes',
   '/Library/Frameworks/Python.framework/Versions/3.11/lib/python3.11/mimetypes.py',
   'PYMODULE'),
  ('http.cookiejar',
   '/Library/Frameworks/Python.framework/Versions/3.11/lib/python3.11/http/cookiejar.py',
   'PYMODULE'),
  ('http',
   '/Library/Frameworks/Python.framework/Versions/3.11/lib/python3.11/http/__init__.py',
   'PYMODULE'),
  ('logging',
   '/Library/Frameworks/Python.framework/Versions/3.11/lib/python3.11/logging/__init__.py',
   'PYMODULE'),
  ('pickle',
   '/Library/Frameworks/Python.framework/Versions/3.11/lib/python3.11/pickle.py',
   'PYMODULE'),
  ('pprint',
   '/Library/Frameworks/Python.framework/Versions/3.11/lib/python3.11/pprint.py',
   'PYMODULE'),
  ('dataclasses',
   '/Library/Frameworks/Python.framework/Versions/3.11/lib/python3.11/dataclasses.py',
   'PYMODULE'),
  ('_compat_pickle',
   '/Library/Frameworks/Python.framework/Versions/3.11/lib/python3.11/_compat_pickle.py',
   'PYMODULE'),
  ('ssl',
   '/Library/Frameworks/Python.framework/Versions/3.11/lib/python3.11/ssl.py',
   'PYMODULE'),
  ('http.client',
   '/Library/Frameworks/Python.framework/Versions/3.11/lib/python3.11/http/client.py',
   'PYMODULE'),
  ('hashlib',
   '/Library/Frameworks/Python.framework/Versions/3.11/lib/python3.11/hashlib.py',
   'PYMODULE'),
  ('bisect',
   '/Library/Frameworks/Python.framework/Versions/3.11/lib/python3.11/bisect.py',
   'PYMODULE'),
  ('tracemalloc',
   '/Library/Frameworks/Python.framework/Versions/3.11/lib/python3.11/tracemalloc.py',
   'PYMODULE'),
  ('subprocess',
   '/Library/Frameworks/Python.framework/Versions/3.11/lib/python3.11/subprocess.py',
   'PYMODULE'),
  ('signal',
   '/Library/Frameworks/Python.framework/Versions/3.11/lib/python3.11/signal.py',
   'PYMODULE'),
  ('string',
   '/Library/Frameworks/Python.framework/Versions/3.11/lib/python3.11/string.py',
   'PYMODULE'),
  ('random',
   '/Library/Frameworks/Python.framework/Versions/3.11/lib/python3.11/random.py',
   'PYMODULE'),
  ('statistics',
   '/Library/Frameworks/Python.framework/Versions/3.11/lib/python3.11/statistics.py',
   'PYMODULE'),
  ('decimal',
   '/Library/Frameworks/Python.framework/Versions/3.11/lib/python3.11/decimal.py',
   'PYMODULE'),
  ('_pydecimal',
   '/Library/Frameworks/Python.framework/Versions/3.11/lib/python3.11/_pydecimal.py',
   'PYMODULE'),
  ('contextvars',
   '/Library/Frameworks/Python.framework/Versions/3.11/lib/python3.11/contextvars.py',
   'PYMODULE'),
  ('fractions',
   '/Library/Frameworks/Python.framework/Versions/3.11/lib/python3.11/fractions.py',
   'PYMODULE'),
  ('numbers',
   '/Library/Frameworks/Python.framework/Versions/3.11/lib/python3.11/numbers.py',
   'PYMODULE'),
  ('requests',
   '/Library/Frameworks/Python.framework/Versions/3.11/lib/python3.11/site-packages/requests/__init__.py',
   'PYMODULE'),
  ('requests.status_codes',
   '/Library/Frameworks/Python.framework/Versions/3.11/lib/python3.11/site-packages/requests/status_codes.py',
   'PYMODULE'),
  ('requests.structures',
   '/Library/Frameworks/Python.framework/Versions/3.11/lib/python3.11/site-packages/requests/structures.py',
   'PYMODULE'),
  ('requests.compat',
   '/Library/Frameworks/Python.framework/Versions/3.11/lib/python3.11/site-packages/requests/compat.py',
   'PYMODULE'),
  ('http.cookies',
   '/Library/Frameworks/Python.framework/Versions/3.11/lib/python3.11/http/cookies.py',
   'PYMODULE'),
  ('json',
   '/Library/Frameworks/Python.framework/Versions/3.11/lib/python3.11/json/__init__.py',
   'PYMODULE'),
  ('json.encoder',
   '/Library/Frameworks/Python.framework/Versions/3.11/lib/python3.11/json/encoder.py',
   'PYMODULE'),
  ('json.decoder',
   '/Library/Frameworks/Python.framework/Versions/3.11/lib/python3.11/json/decoder.py',
   'PYMODULE'),
  ('json.scanner',
   '/Library/Frameworks/Python.framework/Versions/3.11/lib/python3.11/json/scanner.py',
   'PYMODULE'),
  ('requests.models',
   '/Library/Frameworks/Python.framework/Versions/3.11/lib/python3.11/site-packages/requests/models.py',
   'PYMODULE'),
  ('idna',
   '/Library/Frameworks/Python.framework/Versions/3.11/lib/python3.11/site-packages/idna/__init__.py',
   'PYMODULE'),
  ('idna.intranges',
   '/Library/Frameworks/Python.framework/Versions/3.11/lib/python3.11/site-packages/idna/intranges.py',
   'PYMODULE'),
  ('idna.core',
   '/Library/Frameworks/Python.framework/Versions/3.11/lib/python3.11/site-packages/idna/core.py',
   'PYMODULE'),
  ('idna.uts46data',
   '/Library/Frameworks/Python.framework/Versions/3.11/lib/python3.11/site-packages/idna/uts46data.py',
   'PYMODULE'),
  ('idna.idnadata',
   '/Library/Frameworks/Python.framework/Versions/3.11/lib/python3.11/site-packages/idna/idnadata.py',
   'PYMODULE'),
  ('idna.package_data',
   '/Library/Frameworks/Python.framework/Versions/3.11/lib/python3.11/site-packages/idna/package_data.py',
   'PYMODULE'),
  ('requests.hooks',
   '/Library/Frameworks/Python.framework/Versions/3.11/lib/python3.11/site-packages/requests/hooks.py',
   'PYMODULE'),
  ('requests.cookies',
   '/Library/Frameworks/Python.framework/Versions/3.11/lib/python3.11/site-packages/requests/cookies.py',
   'PYMODULE'),
  ('requests.auth',
   '/Library/Frameworks/Python.framework/Versions/3.11/lib/python3.11/site-packages/requests/auth.py',
   'PYMODULE'),
  ('requests._internal_utils',
   '/Library/Frameworks/Python.framework/Versions/3.11/lib/python3.11/site-packages/requests/_internal_utils.py',
   'PYMODULE'),
  ('urllib3.util',
   '/Library/Frameworks/Python.framework/Versions/3.11/lib/python3.11/site-packages/urllib3/util/__init__.py',
   'PYMODULE'),
  ('urllib3.util.wait',
   '/Library/Frameworks/Python.framework/Versions/3.11/lib/python3.11/site-packages/urllib3/util/wait.py',
   'PYMODULE'),
  ('urllib3.util.url',
   '/Library/Frameworks/Python.framework/Versions/3.11/lib/python3.11/site-packages/urllib3/util/url.py',
   'PYMODULE'),
  ('urllib3.packages.six',
   '/Library/Frameworks/Python.framework/Versions/3.11/lib/python3.11/site-packages/urllib3/packages/six.py',
   'PYMODULE'),
  ('urllib3.packages',
   '/Library/Frameworks/Python.framework/Versions/3.11/lib/python3.11/site-packages/urllib3/packages/__init__.py',
   'PYMODULE'),
  ('urllib3.util.timeout',
   '/Library/Frameworks/Python.framework/Versions/3.11/lib/python3.11/site-packages/urllib3/util/timeout.py',
   'PYMODULE'),
  ('urllib3.util.ssl_',
   '/Library/Frameworks/Python.framework/Versions/3.11/lib/python3.11/site-packages/urllib3/util/ssl_.py',
   'PYMODULE'),
  ('urllib3.util.ssltransport',
   '/Library/Frameworks/Python.framework/Versions/3.11/lib/python3.11/site-packages/urllib3/util/ssltransport.py',
   'PYMODULE'),
  ('hmac',
   '/Library/Frameworks/Python.framework/Versions/3.11/lib/python3.11/hmac.py',
   'PYMODULE'),
  ('urllib3.util.retry',
   '/Library/Frameworks/Python.framework/Versions/3.11/lib/python3.11/site-packages/urllib3/util/retry.py',
   'PYMODULE'),
  ('urllib3.util.response',
   '/Library/Frameworks/Python.framework/Versions/3.11/lib/python3.11/site-packages/urllib3/util/response.py',
   'PYMODULE'),
  ('queue',
   '/Library/Frameworks/Python.framework/Versions/3.11/lib/python3.11/queue.py',
   'PYMODULE'),
  ('urllib3.util.request',
   '/Library/Frameworks/Python.framework/Versions/3.11/lib/python3.11/site-packages/urllib3/util/request.py',
   'PYMODULE'),
  ('urllib3.util.connection',
   '/Library/Frameworks/Python.framework/Versions/3.11/lib/python3.11/site-packages/urllib3/util/connection.py',
   'PYMODULE'),
  ('urllib3.contrib._appengine_environ',
   '/Library/Frameworks/Python.framework/Versions/3.11/lib/python3.11/site-packages/urllib3/contrib/_appengine_environ.py',
   'PYMODULE'),
  ('__future__',
   '/Library/Frameworks/Python.framework/Versions/3.11/lib/python3.11/__future__.py',
   'PYMODULE'),
  ('urllib3.filepost',
   '/Library/Frameworks/Python.framework/Versions/3.11/lib/python3.11/site-packages/urllib3/filepost.py',
   'PYMODULE'),
  ('urllib3.fields',
   '/Library/Frameworks/Python.framework/Versions/3.11/lib/python3.11/site-packages/urllib3/fields.py',
   'PYMODULE'),
  ('requests.api',
   '/Library/Frameworks/Python.framework/Versions/3.11/lib/python3.11/site-packages/requests/api.py',
   'PYMODULE'),
  ('requests.sessions',
   '/Library/Frameworks/Python.framework/Versions/3.11/lib/python3.11/site-packages/requests/sessions.py',
   'PYMODULE'),
  ('requests.adapters',
   '/Library/Frameworks/Python.framework/Versions/3.11/lib/python3.11/site-packages/requests/adapters.py',
   'PYMODULE'),
  ('urllib3.contrib.socks',
   '/Library/Frameworks/Python.framework/Versions/3.11/lib/python3.11/site-packages/urllib3/contrib/socks.py',
   'PYMODULE'),
  ('urllib3.connectionpool',
   '/Library/Frameworks/Python.framework/Versions/3.11/lib/python3.11/site-packages/urllib3/connectionpool.py',
   'PYMODULE'),
  ('urllib3.util.ssl_match_hostname',
   '/Library/Frameworks/Python.framework/Versions/3.11/lib/python3.11/site-packages/urllib3/util/ssl_match_hostname.py',
   'PYMODULE'),
  ('ipaddress',
   '/Library/Frameworks/Python.framework/Versions/3.11/lib/python3.11/ipaddress.py',
   'PYMODULE'),
  ('urllib3.util.queue',
   '/Library/Frameworks/Python.framework/Versions/3.11/lib/python3.11/site-packages/urllib3/util/queue.py',
   'PYMODULE'),
  ('urllib3.util.proxy',
   '/Library/Frameworks/Python.framework/Versions/3.11/lib/python3.11/site-packages/urllib3/util/proxy.py',
   'PYMODULE'),
  ('urllib3.request',
   '/Library/Frameworks/Python.framework/Versions/3.11/lib/python3.11/site-packages/urllib3/request.py',
   'PYMODULE'),
  ('urllib3.connection',
   '/Library/Frameworks/Python.framework/Versions/3.11/lib/python3.11/site-packages/urllib3/connection.py',
   'PYMODULE'),
  ('urllib3._version',
   '/Library/Frameworks/Python.framework/Versions/3.11/lib/python3.11/site-packages/urllib3/_version.py',
   'PYMODULE'),
  ('urllib3._collections',
   '/Library/Frameworks/Python.framework/Versions/3.11/lib/python3.11/site-packages/urllib3/_collections.py',
   'PYMODULE'),
  ('socks',
   '/Library/Frameworks/Python.framework/Versions/3.11/lib/python3.11/site-packages/socks.py',
   'PYMODULE'),
  ('urllib3.response',
   '/Library/Frameworks/Python.framework/Versions/3.11/lib/python3.11/site-packages/urllib3/response.py',
   'PYMODULE'),
  ('urllib3.poolmanager',
   '/Library/Frameworks/Python.framework/Versions/3.11/lib/python3.11/site-packages/urllib3/poolmanager.py',
   'PYMODULE'),
  ('requests.__version__',
   '/Library/Frameworks/Python.framework/Versions/3.11/lib/python3.11/site-packages/requests/__version__.py',
   'PYMODULE'),
  ('requests.utils',
   '/Library/Frameworks/Python.framework/Versions/3.11/lib/python3.11/site-packages/requests/utils.py',
   'PYMODULE'),
  ('requests.certs',
   '/Library/Frameworks/Python.framework/Versions/3.11/lib/python3.11/site-packages/requests/certs.py',
   'PYMODULE'),
  ('certifi',
   '/Library/Frameworks/Python.framework/Versions/3.11/lib/python3.11/site-packages/certifi/__init__.py',
   'PYMODULE'),
  ('certifi.core',
   '/Library/Frameworks/Python.framework/Versions/3.11/lib/python3.11/site-packages/certifi/core.py',
   'PYMODULE'),
  ('requests.packages',
   '/Library/Frameworks/Python.framework/Versions/3.11/lib/python3.11/site-packages/requests/packages.py',
   'PYMODULE'),
  ('urllib3.exceptions',
   '/Library/Frameworks/Python.framework/Versions/3.11/lib/python3.11/site-packages/urllib3/exceptions.py',
   'PYMODULE'),
  ('cryptography',
   '/Library/Frameworks/Python.framework/Versions/3.11/lib/python3.11/site-packages/cryptography/__init__.py',
   'PYMODULE'),
  ('cryptography.hazmat.bindings.openssl.binding',
   '/Library/Frameworks/Python.framework/Versions/3.11/lib/python3.11/site-packages/cryptography/hazmat/bindings/openssl/binding.py',
   'PYMODULE'),
  ('cryptography.hazmat.bindings',
   '/Library/Frameworks/Python.framework/Versions/3.11/lib/python3.11/site-packages/cryptography/hazmat/bindings/__init__.py',
   'PYMODULE'),
  ('cryptography.hazmat',
   '/Library/Frameworks/Python.framework/Versions/3.11/lib/python3.11/site-packages/cryptography/hazmat/__init__.py',
   'PYMODULE'),
  ('cryptography.exceptions',
   '/Library/Frameworks/Python.framework/Versions/3.11/lib/python3.11/site-packages/cryptography/exceptions.py',
   'PYMODULE'),
  ('cryptography.hazmat.bindings.openssl._conditional',
   '/Library/Frameworks/Python.framework/Versions/3.11/lib/python3.11/site-packages/cryptography/hazmat/bindings/openssl/_conditional.py',
   'PYMODULE'),
  ('cryptography.hazmat.bindings.openssl',
   '/Library/Frameworks/Python.framework/Versions/3.11/lib/python3.11/site-packages/cryptography/hazmat/bindings/openssl/__init__.py',
   'PYMODULE'),
  ('cryptography.hazmat.backends.openssl.x448',
   '/Library/Frameworks/Python.framework/Versions/3.11/lib/python3.11/site-packages/cryptography/hazmat/backends/openssl/x448.py',
   'PYMODULE'),
  ('cryptography.hazmat.primitives.asymmetric.x448',
   '/Library/Frameworks/Python.framework/Versions/3.11/lib/python3.11/site-packages/cryptography/hazmat/primitives/asymmetric/x448.py',
   'PYMODULE'),
  ('cryptography.hazmat.primitives.asymmetric',
   '/Library/Frameworks/Python.framework/Versions/3.11/lib/python3.11/site-packages/cryptography/hazmat/primitives/asymmetric/__init__.py',
   'PYMODULE'),
  ('cryptography.hazmat.primitives.asymmetric.x25519',
   '/Library/Frameworks/Python.framework/Versions/3.11/lib/python3.11/site-packages/cryptography/hazmat/primitives/asymmetric/x25519.py',
   'PYMODULE'),
  ('cryptography.hazmat.primitives.asymmetric.rsa',
   '/Library/Frameworks/Python.framework/Versions/3.11/lib/python3.11/site-packages/cryptography/hazmat/primitives/asymmetric/rsa.py',
   'PYMODULE'),
  ('cryptography.hazmat.primitives._asymmetric',
   '/Library/Frameworks/Python.framework/Versions/3.11/lib/python3.11/site-packages/cryptography/hazmat/primitives/_asymmetric.py',
   'PYMODULE'),
  ('cryptography.hazmat.primitives.hashes',
   '/Library/Frameworks/Python.framework/Versions/3.11/lib/python3.11/site-packages/cryptography/hazmat/primitives/hashes.py',
   'PYMODULE'),
  ('cryptography.hazmat.primitives.asymmetric.ed25519',
   '/Library/Frameworks/Python.framework/Versions/3.11/lib/python3.11/site-packages/cryptography/hazmat/primitives/asymmetric/ed25519.py',
   'PYMODULE'),
  ('cryptography.hazmat.primitives.asymmetric.ed448',
   '/Library/Frameworks/Python.framework/Versions/3.11/lib/python3.11/site-packages/cryptography/hazmat/primitives/asymmetric/ed448.py',
   'PYMODULE'),
  ('cryptography.hazmat.primitives.asymmetric.ec',
   '/Library/Frameworks/Python.framework/Versions/3.11/lib/python3.11/site-packages/cryptography/hazmat/primitives/asymmetric/ec.py',
   'PYMODULE'),
  ('cryptography.hazmat._oid',
   '/Library/Frameworks/Python.framework/Versions/3.11/lib/python3.11/site-packages/cryptography/hazmat/_oid.py',
   'PYMODULE'),
  ('cryptography.hazmat.primitives.asymmetric.dsa',
   '/Library/Frameworks/Python.framework/Versions/3.11/lib/python3.11/site-packages/cryptography/hazmat/primitives/asymmetric/dsa.py',
   'PYMODULE'),
  ('cryptography.hazmat.primitives.asymmetric.utils',
   '/Library/Frameworks/Python.framework/Versions/3.11/lib/python3.11/site-packages/cryptography/hazmat/primitives/asymmetric/utils.py',
   'PYMODULE'),
  ('cryptography.hazmat.primitives.asymmetric.dh',
   '/Library/Frameworks/Python.framework/Versions/3.11/lib/python3.11/site-packages/cryptography/hazmat/primitives/asymmetric/dh.py',
   'PYMODULE'),
  ('cryptography.hazmat.primitives._serialization',
   '/Library/Frameworks/Python.framework/Versions/3.11/lib/python3.11/site-packages/cryptography/hazmat/primitives/_serialization.py',
   'PYMODULE'),
  ('cryptography.hazmat.primitives.serialization',
   '/Library/Frameworks/Python.framework/Versions/3.11/lib/python3.11/site-packages/cryptography/hazmat/primitives/serialization/__init__.py',
   'PYMODULE'),
  ('cryptography.hazmat.primitives.serialization.ssh',
   '/Library/Frameworks/Python.framework/Versions/3.11/lib/python3.11/site-packages/cryptography/hazmat/primitives/serialization/ssh.py',
   'PYMODULE'),
  ('cryptography.hazmat.primitives.ciphers.modes',
   '/Library/Frameworks/Python.framework/Versions/3.11/lib/python3.11/site-packages/cryptography/hazmat/primitives/ciphers/modes.py',
   'PYMODULE'),
  ('cryptography.hazmat.primitives._cipheralgorithm',
   '/Library/Frameworks/Python.framework/Versions/3.11/lib/python3.11/site-packages/cryptography/hazmat/primitives/_cipheralgorithm.py',
   'PYMODULE'),
  ('cryptography.hazmat.primitives.ciphers.algorithms',
   '/Library/Frameworks/Python.framework/Versions/3.11/lib/python3.11/site-packages/cryptography/hazmat/primitives/ciphers/algorithms.py',
   'PYMODULE'),
  ('cryptography.hazmat.primitives.ciphers',
   '/Library/Frameworks/Python.framework/Versions/3.11/lib/python3.11/site-packages/cryptography/hazmat/primitives/ciphers/__init__.py',
   'PYMODULE'),
  ('cryptography.hazmat.primitives.ciphers.base',
   '/Library/Frameworks/Python.framework/Versions/3.11/lib/python3.11/site-packages/cryptography/hazmat/primitives/ciphers/base.py',
   'PYMODULE'),
  ('cryptography.hazmat.primitives.serialization.base',
   '/Library/Frameworks/Python.framework/Versions/3.11/lib/python3.11/site-packages/cryptography/hazmat/primitives/serialization/base.py',
   'PYMODULE'),
  ('cryptography.hazmat.primitives.asymmetric.types',
   '/Library/Frameworks/Python.framework/Versions/3.11/lib/python3.11/site-packages/cryptography/hazmat/primitives/asymmetric/types.py',
   'PYMODULE'),
  ('cryptography.hazmat.primitives',
   '/Library/Frameworks/Python.framework/Versions/3.11/lib/python3.11/site-packages/cryptography/hazmat/primitives/__init__.py',
   'PYMODULE'),
  ('cryptography.hazmat.primitives.constant_time',
   '/Library/Frameworks/Python.framework/Versions/3.11/lib/python3.11/site-packages/cryptography/hazmat/primitives/constant_time.py',
   'PYMODULE'),
  ('cryptography.hazmat.backends.openssl.x25519',
   '/Library/Frameworks/Python.framework/Versions/3.11/lib/python3.11/site-packages/cryptography/hazmat/backends/openssl/x25519.py',
   'PYMODULE'),
  ('cryptography.hazmat.backends.openssl.utils',
   '/Library/Frameworks/Python.framework/Versions/3.11/lib/python3.11/site-packages/cryptography/hazmat/backends/openssl/utils.py',
   'PYMODULE'),
  ('cryptography.hazmat.backends.openssl.rsa',
   '/Library/Frameworks/Python.framework/Versions/3.11/lib/python3.11/site-packages/cryptography/hazmat/backends/openssl/rsa.py',
   'PYMODULE'),
  ('cryptography.hazmat.primitives.asymmetric.padding',
   '/Library/Frameworks/Python.framework/Versions/3.11/lib/python3.11/site-packages/cryptography/hazmat/primitives/asymmetric/padding.py',
   'PYMODULE'),
  ('cryptography.hazmat.backends.openssl.poly1305',
   '/Library/Frameworks/Python.framework/Versions/3.11/lib/python3.11/site-packages/cryptography/hazmat/backends/openssl/poly1305.py',
   'PYMODULE'),
  ('cryptography.hazmat.backends.openssl.hmac',
   '/Library/Frameworks/Python.framework/Versions/3.11/lib/python3.11/site-packages/cryptography/hazmat/backends/openssl/hmac.py',
   'PYMODULE'),
  ('cryptography.hazmat.backends.openssl.hashes',
   '/Library/Frameworks/Python.framework/Versions/3.11/lib/python3.11/site-packages/cryptography/hazmat/backends/openssl/hashes.py',
   'PYMODULE'),
  ('cryptography.hazmat.backends.openssl.ed448',
   '/Library/Frameworks/Python.framework/Versions/3.11/lib/python3.11/site-packages/cryptography/hazmat/backends/openssl/ed448.py',
   'PYMODULE'),
  ('cryptography.hazmat.backends.openssl.ed25519',
   '/Library/Frameworks/Python.framework/Versions/3.11/lib/python3.11/site-packages/cryptography/hazmat/backends/openssl/ed25519.py',
   'PYMODULE'),
  ('cryptography.hazmat.backends.openssl.ec',
   '/Library/Frameworks/Python.framework/Versions/3.11/lib/python3.11/site-packages/cryptography/hazmat/backends/openssl/ec.py',
   'PYMODULE'),
  ('cryptography.hazmat.backends.openssl.dsa',
   '/Library/Frameworks/Python.framework/Versions/3.11/lib/python3.11/site-packages/cryptography/hazmat/backends/openssl/dsa.py',
   'PYMODULE'),
  ('cryptography.hazmat.backends.openssl.dh',
   '/Library/Frameworks/Python.framework/Versions/3.11/lib/python3.11/site-packages/cryptography/hazmat/backends/openssl/dh.py',
   'PYMODULE'),
  ('cryptography.hazmat.backends.openssl.decode_asn1',
   '/Library/Frameworks/Python.framework/Versions/3.11/lib/python3.11/site-packages/cryptography/hazmat/backends/openssl/decode_asn1.py',
   'PYMODULE'),
  ('cryptography.hazmat.backends.openssl.cmac',
   '/Library/Frameworks/Python.framework/Versions/3.11/lib/python3.11/site-packages/cryptography/hazmat/backends/openssl/cmac.py',
   'PYMODULE'),
  ('cryptography.hazmat.backends.openssl.ciphers',
   '/Library/Frameworks/Python.framework/Versions/3.11/lib/python3.11/site-packages/cryptography/hazmat/backends/openssl/ciphers.py',
   'PYMODULE'),
  ('cryptography.hazmat.backends.openssl.backend',
   '/Library/Frameworks/Python.framework/Versions/3.11/lib/python3.11/site-packages/cryptography/hazmat/backends/openssl/backend.py',
   'PYMODULE'),
  ('cryptography.hazmat.primitives.serialization.pkcs12',
   '/Library/Frameworks/Python.framework/Versions/3.11/lib/python3.11/site-packages/cryptography/hazmat/primitives/serialization/pkcs12.py',
   'PYMODULE'),
  ('cryptography.hazmat.primitives.kdf.scrypt',
   '/Library/Frameworks/Python.framework/Versions/3.11/lib/python3.11/site-packages/cryptography/hazmat/primitives/kdf/scrypt.py',
   'PYMODULE'),
  ('cryptography.hazmat.primitives.kdf',
   '/Library/Frameworks/Python.framework/Versions/3.11/lib/python3.11/site-packages/cryptography/hazmat/primitives/kdf/__init__.py',
   'PYMODULE'),
  ('cryptography.hazmat.backends.openssl.aead',
   '/Library/Frameworks/Python.framework/Versions/3.11/lib/python3.11/site-packages/cryptography/hazmat/backends/openssl/aead.py',
   'PYMODULE'),
  ('cryptography.hazmat.primitives.ciphers.aead',
   '/Library/Frameworks/Python.framework/Versions/3.11/lib/python3.11/site-packages/cryptography/hazmat/primitives/ciphers/aead.py',
   'PYMODULE'),
  ('cryptography.hazmat.backends.openssl',
   '/Library/Frameworks/Python.framework/Versions/3.11/lib/python3.11/site-packages/cryptography/hazmat/backends/openssl/__init__.py',
   'PYMODULE'),
  ('cryptography.hazmat.backends',
   '/Library/Frameworks/Python.framework/Versions/3.11/lib/python3.11/site-packages/cryptography/hazmat/backends/__init__.py',
   'PYMODULE'),
  ('cryptography.x509',
   '/Library/Frameworks/Python.framework/Versions/3.11/lib/python3.11/site-packages/cryptography/x509/__init__.py',
   'PYMODULE'),
  ('cryptography.x509.oid',
   '/Library/Frameworks/Python.framework/Versions/3.11/lib/python3.11/site-packages/cryptography/x509/oid.py',
   'PYMODULE'),
  ('cryptography.x509.name',
   '/Library/Frameworks/Python.framework/Versions/3.11/lib/python3.11/site-packages/cryptography/x509/name.py',
   'PYMODULE'),
  ('cryptography.x509.general_name',
   '/Library/Frameworks/Python.framework/Versions/3.11/lib/python3.11/site-packages/cryptography/x509/general_name.py',
   'PYMODULE'),
  ('cryptography.x509.extensions',
   '/Library/Frameworks/Python.framework/Versions/3.11/lib/python3.11/site-packages/cryptography/x509/extensions.py',
   'PYMODULE'),
  ('cryptography.x509.base',
   '/Library/Frameworks/Python.framework/Versions/3.11/lib/python3.11/site-packages/cryptography/x509/base.py',
   'PYMODULE'),
  ('cryptography.x509.certificate_transparency',
   '/Library/Frameworks/Python.framework/Versions/3.11/lib/python3.11/site-packages/cryptography/x509/certificate_transparency.py',
   'PYMODULE'),
  ('cryptography.utils',
   '/Library/Frameworks/Python.framework/Versions/3.11/lib/python3.11/site-packages/cryptography/utils.py',
   'PYMODULE'),
  ('cryptography.__about__',
   '/Library/Frameworks/Python.framework/Versions/3.11/lib/python3.11/site-packages/cryptography/__about__.py',
   'PYMODULE'),
  ('urllib3.contrib.pyopenssl',
   '/Library/Frameworks/Python.framework/Versions/3.11/lib/python3.11/site-packages/urllib3/contrib/pyopenssl.py',
   'PYMODULE'),
  ('urllib3.packages.backports.makefile',
   '/Library/Frameworks/Python.framework/Versions/3.11/lib/python3.11/site-packages/urllib3/packages/backports/makefile.py',
   'PYMODULE'),
  ('urllib3.packages.backports',
   '/Library/Frameworks/Python.framework/Versions/3.11/lib/python3.11/site-packages/urllib3/packages/backports/__init__.py',
   'PYMODULE'),
  ('OpenSSL.SSL',
   '/Library/Frameworks/Python.framework/Versions/3.11/lib/python3.11/site-packages/OpenSSL/SSL.py',
   'PYMODULE'),
  ('OpenSSL',
   '/Library/Frameworks/Python.framework/Versions/3.11/lib/python3.11/site-packages/OpenSSL/__init__.py',
   'PYMODULE'),
  ('OpenSSL.version',
   '/Library/Frameworks/Python.framework/Versions/3.11/lib/python3.11/site-packages/OpenSSL/version.py',
   'PYMODULE'),
  ('OpenSSL._util',
   '/Library/Frameworks/Python.framework/Versions/3.11/lib/python3.11/site-packages/OpenSSL/_util.py',
   'PYMODULE'),
  ('OpenSSL.crypto',
   '/Library/Frameworks/Python.framework/Versions/3.11/lib/python3.11/site-packages/OpenSSL/crypto.py',
   'PYMODULE'),
  ('urllib3.contrib',
   '/Library/Frameworks/Python.framework/Versions/3.11/lib/python3.11/site-packages/urllib3/contrib/__init__.py',
   'PYMODULE'),
  ('chardet',
   '/Library/Frameworks/Python.framework/Versions/3.11/lib/python3.11/site-packages/chardet/__init__.py',
   'PYMODULE'),
  ('chardet.version',
   '/Library/Frameworks/Python.framework/Versions/3.11/lib/python3.11/site-packages/chardet/version.py',
   'PYMODULE'),
  ('chardet.enums',
   '/Library/Frameworks/Python.framework/Versions/3.11/lib/python3.11/site-packages/chardet/enums.py',
   'PYMODULE'),
  ('chardet.universaldetector',
   '/Library/Frameworks/Python.framework/Versions/3.11/lib/python3.11/site-packages/chardet/universaldetector.py',
   'PYMODULE'),
  ('chardet.sbcsgroupprober',
   '/Library/Frameworks/Python.framework/Versions/3.11/lib/python3.11/site-packages/chardet/sbcsgroupprober.py',
   'PYMODULE'),
  ('chardet.sbcharsetprober',
   '/Library/Frameworks/Python.framework/Versions/3.11/lib/python3.11/site-packages/chardet/sbcharsetprober.py',
   'PYMODULE'),
  ('chardet.charsetprober',
   '/Library/Frameworks/Python.framework/Versions/3.11/lib/python3.11/site-packages/chardet/charsetprober.py',
   'PYMODULE'),
  ('chardet.langturkishmodel',
   '/Library/Frameworks/Python.framework/Versions/3.11/lib/python3.11/site-packages/chardet/langturkishmodel.py',
   'PYMODULE'),
  ('chardet.langthaimodel',
   '/Library/Frameworks/Python.framework/Versions/3.11/lib/python3.11/site-packages/chardet/langthaimodel.py',
   'PYMODULE'),
  ('chardet.langrussianmodel',
   '/Library/Frameworks/Python.framework/Versions/3.11/lib/python3.11/site-packages/chardet/langrussianmodel.py',
   'PYMODULE'),
  ('chardet.langhebrewmodel',
   '/Library/Frameworks/Python.framework/Versions/3.11/lib/python3.11/site-packages/chardet/langhebrewmodel.py',
   'PYMODULE'),
  ('chardet.langgreekmodel',
   '/Library/Frameworks/Python.framework/Versions/3.11/lib/python3.11/site-packages/chardet/langgreekmodel.py',
   'PYMODULE'),
  ('chardet.langbulgarianmodel',
   '/Library/Frameworks/Python.framework/Versions/3.11/lib/python3.11/site-packages/chardet/langbulgarianmodel.py',
   'PYMODULE'),
  ('chardet.hebrewprober',
   '/Library/Frameworks/Python.framework/Versions/3.11/lib/python3.11/site-packages/chardet/hebrewprober.py',
   'PYMODULE'),
  ('chardet.mbcsgroupprober',
   '/Library/Frameworks/Python.framework/Versions/3.11/lib/python3.11/site-packages/chardet/mbcsgroupprober.py',
   'PYMODULE'),
  ('chardet.euctwprober',
   '/Library/Frameworks/Python.framework/Versions/3.11/lib/python3.11/site-packages/chardet/euctwprober.py',
   'PYMODULE'),
  ('chardet.mbcssm',
   '/Library/Frameworks/Python.framework/Versions/3.11/lib/python3.11/site-packages/chardet/mbcssm.py',
   'PYMODULE'),
  ('chardet.chardistribution',
   '/Library/Frameworks/Python.framework/Versions/3.11/lib/python3.11/site-packages/chardet/chardistribution.py',
   'PYMODULE'),
  ('chardet.jisfreq',
   '/Library/Frameworks/Python.framework/Versions/3.11/lib/python3.11/site-packages/chardet/jisfreq.py',
   'PYMODULE'),
  ('chardet.big5freq',
   '/Library/Frameworks/Python.framework/Versions/3.11/lib/python3.11/site-packages/chardet/big5freq.py',
   'PYMODULE'),
  ('chardet.gb2312freq',
   '/Library/Frameworks/Python.framework/Versions/3.11/lib/python3.11/site-packages/chardet/gb2312freq.py',
   'PYMODULE'),
  ('chardet.euckrfreq',
   '/Library/Frameworks/Python.framework/Versions/3.11/lib/python3.11/site-packages/chardet/euckrfreq.py',
   'PYMODULE'),
  ('chardet.euctwfreq',
   '/Library/Frameworks/Python.framework/Versions/3.11/lib/python3.11/site-packages/chardet/euctwfreq.py',
   'PYMODULE'),
  ('chardet.codingstatemachine',
   '/Library/Frameworks/Python.framework/Versions/3.11/lib/python3.11/site-packages/chardet/codingstatemachine.py',
   'PYMODULE'),
  ('chardet.mbcharsetprober',
   '/Library/Frameworks/Python.framework/Versions/3.11/lib/python3.11/site-packages/chardet/mbcharsetprober.py',
   'PYMODULE'),
  ('chardet.big5prober',
   '/Library/Frameworks/Python.framework/Versions/3.11/lib/python3.11/site-packages/chardet/big5prober.py',
   'PYMODULE'),
  ('chardet.cp949prober',
   '/Library/Frameworks/Python.framework/Versions/3.11/lib/python3.11/site-packages/chardet/cp949prober.py',
   'PYMODULE'),
  ('chardet.euckrprober',
   '/Library/Frameworks/Python.framework/Versions/3.11/lib/python3.11/site-packages/chardet/euckrprober.py',
   'PYMODULE'),
  ('chardet.gb2312prober',
   '/Library/Frameworks/Python.framework/Versions/3.11/lib/python3.11/site-packages/chardet/gb2312prober.py',
   'PYMODULE'),
  ('chardet.eucjpprober',
   '/Library/Frameworks/Python.framework/Versions/3.11/lib/python3.11/site-packages/chardet/eucjpprober.py',
   'PYMODULE'),
  ('chardet.jpcntx',
   '/Library/Frameworks/Python.framework/Versions/3.11/lib/python3.11/site-packages/chardet/jpcntx.py',
   'PYMODULE'),
  ('chardet.sjisprober',
   '/Library/Frameworks/Python.framework/Versions/3.11/lib/python3.11/site-packages/chardet/sjisprober.py',
   'PYMODULE'),
  ('chardet.utf8prober',
   '/Library/Frameworks/Python.framework/Versions/3.11/lib/python3.11/site-packages/chardet/utf8prober.py',
   'PYMODULE'),
  ('chardet.latin1prober',
   '/Library/Frameworks/Python.framework/Versions/3.11/lib/python3.11/site-packages/chardet/latin1prober.py',
   'PYMODULE'),
  ('chardet.escprober',
   '/Library/Frameworks/Python.framework/Versions/3.11/lib/python3.11/site-packages/chardet/escprober.py',
   'PYMODULE'),
  ('chardet.escsm',
   '/Library/Frameworks/Python.framework/Versions/3.11/lib/python3.11/site-packages/chardet/escsm.py',
   'PYMODULE'),
  ('chardet.charsetgroupprober',
   '/Library/Frameworks/Python.framework/Versions/3.11/lib/python3.11/site-packages/chardet/charsetgroupprober.py',
   'PYMODULE'),
  ('charset_normalizer',
   '/Library/Frameworks/Python.framework/Versions/3.11/lib/python3.11/site-packages/charset_normalizer/__init__.py',
   'PYMODULE'),
  ('charset_normalizer.version',
   '/Library/Frameworks/Python.framework/Versions/3.11/lib/python3.11/site-packages/charset_normalizer/version.py',
   'PYMODULE'),
  ('charset_normalizer.utils',
   '/Library/Frameworks/Python.framework/Versions/3.11/lib/python3.11/site-packages/charset_normalizer/utils.py',
   'PYMODULE'),
  ('charset_normalizer.constant',
   '/Library/Frameworks/Python.framework/Versions/3.11/lib/python3.11/site-packages/charset_normalizer/constant.py',
   'PYMODULE'),
  ('charset_normalizer.assets',
   '/Library/Frameworks/Python.framework/Versions/3.11/lib/python3.11/site-packages/charset_normalizer/assets/__init__.py',
   'PYMODULE'),
  ('charset_normalizer.models',
   '/Library/Frameworks/Python.framework/Versions/3.11/lib/python3.11/site-packages/charset_normalizer/models.py',
   'PYMODULE'),
  ('charset_normalizer.cd',
   '/Library/Frameworks/Python.framework/Versions/3.11/lib/python3.11/site-packages/charset_normalizer/cd.py',
   'PYMODULE'),
  ('charset_normalizer.md',
   '/Library/Frameworks/Python.framework/Versions/3.11/lib/python3.11/site-packages/charset_normalizer/md.py',
   'PYMODULE'),
  ('charset_normalizer.legacy',
   '/Library/Frameworks/Python.framework/Versions/3.11/lib/python3.11/site-packages/charset_normalizer/legacy.py',
   'PYMODULE'),
  ('charset_normalizer.api',
   '/Library/Frameworks/Python.framework/Versions/3.11/lib/python3.11/site-packages/charset_normalizer/api.py',
   'PYMODULE'),
  ('requests.exceptions',
   '/Library/Frameworks/Python.framework/Versions/3.11/lib/python3.11/site-packages/requests/exceptions.py',
   'PYMODULE'),
  ('urllib3',
   '/Library/Frameworks/Python.framework/Versions/3.11/lib/python3.11/site-packages/urllib3/__init__.py',
   'PYMODULE')],
 [('Python',
   '/Library/Frameworks/Python.framework/Versions/3.11/Python',
   'BINARY'),
  ('lib-dynload/_typing.cpython-311-darwin.so',
   '/Library/Frameworks/Python.framework/Versions/3.11/lib/python3.11/lib-dynload/_typing.cpython-311-darwin.so',
   'EXTENSION'),
  ('lib-dynload/_struct.cpython-311-darwin.so',
   '/Library/Frameworks/Python.framework/Versions/3.11/lib/python3.11/lib-dynload/_struct.cpython-311-darwin.so',
   'EXTENSION'),
  ('lib-dynload/grp.cpython-311-darwin.so',
   '/Library/Frameworks/Python.framework/Versions/3.11/lib/python3.11/lib-dynload/grp.cpython-311-darwin.so',
   'EXTENSION'),
  ('lib-dynload/_lzma.cpython-311-darwin.so',
   '/Library/Frameworks/Python.framework/Versions/3.11/lib/python3.11/lib-dynload/_lzma.cpython-311-darwin.so',
   'EXTENSION'),
  ('lib-dynload/_bz2.cpython-311-darwin.so',
   '/Library/Frameworks/Python.framework/Versions/3.11/lib/python3.11/lib-dynload/_bz2.cpython-311-darwin.so',
   'EXTENSION'),
  ('lib-dynload/zlib.cpython-311-darwin.so',
   '/Library/Frameworks/Python.framework/Versions/3.11/lib/python3.11/lib-dynload/zlib.cpython-311-darwin.so',
   'EXTENSION'),
  ('lib-dynload/_datetime.cpython-311-darwin.so',
   '/Library/Frameworks/Python.framework/Versions/3.11/lib/python3.11/lib-dynload/_datetime.cpython-311-darwin.so',
   'EXTENSION'),
  ('lib-dynload/math.cpython-311-darwin.so',
   '/Library/Frameworks/Python.framework/Versions/3.11/lib/python3.11/lib-dynload/math.cpython-311-darwin.so',
   'EXTENSION'),
  ('lib-dynload/array.cpython-311-darwin.so',
   '/Library/Frameworks/Python.framework/Versions/3.11/lib/python3.11/lib-dynload/array.cpython-311-darwin.so',
   'EXTENSION'),
  ('lib-dynload/select.cpython-311-darwin.so',
   '/Library/Frameworks/Python.framework/Versions/3.11/lib/python3.11/lib-dynload/select.cpython-311-darwin.so',
   'EXTENSION'),
  ('lib-dynload/_socket.cpython-311-darwin.so',
   '/Library/Frameworks/Python.framework/Versions/3.11/lib/python3.11/lib-dynload/_socket.cpython-311-darwin.so',
   'EXTENSION'),
  ('lib-dynload/binascii.cpython-311-darwin.so',
   '/Library/Frameworks/Python.framework/Versions/3.11/lib/python3.11/lib-dynload/binascii.cpython-311-darwin.so',
   'EXTENSION'),
  ('lib-dynload/_csv.cpython-311-darwin.so',
   '/Library/Frameworks/Python.framework/Versions/3.11/lib/python3.11/lib-dynload/_csv.cpython-311-darwin.so',
   'EXTENSION'),
  ('lib-dynload/resource.cpython-311-darwin.so',
   '/Library/Frameworks/Python.framework/Versions/3.11/lib/python3.11/lib-dynload/resource.cpython-311-darwin.so',
   'EXTENSION'),
  ('lib-dynload/_opcode.cpython-311-darwin.so',
   '/Library/Frameworks/Python.framework/Versions/3.11/lib/python3.11/lib-dynload/_opcode.cpython-311-darwin.so',
   'EXTENSION'),
  ('lib-dynload/_multibytecodec.cpython-311-darwin.so',
   '/Library/Frameworks/Python.framework/Versions/3.11/lib/python3.11/lib-dynload/_multibytecodec.cpython-311-darwin.so',
   'EXTENSION'),
  ('lib-dynload/_codecs_jp.cpython-311-darwin.so',
   '/Library/Frameworks/Python.framework/Versions/3.11/lib/python3.11/lib-dynload/_codecs_jp.cpython-311-darwin.so',
   'EXTENSION'),
  ('lib-dynload/_codecs_kr.cpython-311-darwin.so',
   '/Library/Frameworks/Python.framework/Versions/3.11/lib/python3.11/lib-dynload/_codecs_kr.cpython-311-darwin.so',
   'EXTENSION'),
  ('lib-dynload/_codecs_iso2022.cpython-311-darwin.so',
   '/Library/Frameworks/Python.framework/Versions/3.11/lib/python3.11/lib-dynload/_codecs_iso2022.cpython-311-darwin.so',
   'EXTENSION'),
  ('lib-dynload/unicodedata.cpython-311-darwin.so',
   '/Library/Frameworks/Python.framework/Versions/3.11/lib/python3.11/lib-dynload/unicodedata.cpython-311-darwin.so',
   'EXTENSION'),
  ('lib-dynload/_codecs_cn.cpython-311-darwin.so',
   '/Library/Frameworks/Python.framework/Versions/3.11/lib/python3.11/lib-dynload/_codecs_cn.cpython-311-darwin.so',
   'EXTENSION'),
  ('lib-dynload/_codecs_tw.cpython-311-darwin.so',
   '/Library/Frameworks/Python.framework/Versions/3.11/lib/python3.11/lib-dynload/_codecs_tw.cpython-311-darwin.so',
   'EXTENSION'),
  ('lib-dynload/_codecs_hk.cpython-311-darwin.so',
   '/Library/Frameworks/Python.framework/Versions/3.11/lib/python3.11/lib-dynload/_codecs_hk.cpython-311-darwin.so',
   'EXTENSION'),
  ('lib-dynload/_scproxy.cpython-311-darwin.so',
   '/Library/Frameworks/Python.framework/Versions/3.11/lib/python3.11/lib-dynload/_scproxy.cpython-311-darwin.so',
   'EXTENSION'),
  ('lib-dynload/termios.cpython-311-darwin.so',
   '/Library/Frameworks/Python.framework/Versions/3.11/lib/python3.11/lib-dynload/termios.cpython-311-darwin.so',
   'EXTENSION'),
  ('lib-dynload/_pickle.cpython-311-darwin.so',
   '/Library/Frameworks/Python.framework/Versions/3.11/lib/python3.11/lib-dynload/_pickle.cpython-311-darwin.so',
   'EXTENSION'),
  ('lib-dynload/_ssl.cpython-311-darwin.so',
   '/Library/Frameworks/Python.framework/Versions/3.11/lib/python3.11/lib-dynload/_ssl.cpython-311-darwin.so',
   'EXTENSION'),
  ('lib-dynload/_hashlib.cpython-311-darwin.so',
   '/Library/Frameworks/Python.framework/Versions/3.11/lib/python3.11/lib-dynload/_hashlib.cpython-311-darwin.so',
   'EXTENSION'),
  ('lib-dynload/_sha3.cpython-311-darwin.so',
   '/Library/Frameworks/Python.framework/Versions/3.11/lib/python3.11/lib-dynload/_sha3.cpython-311-darwin.so',
   'EXTENSION'),
  ('lib-dynload/_blake2.cpython-311-darwin.so',
   '/Library/Frameworks/Python.framework/Versions/3.11/lib/python3.11/lib-dynload/_blake2.cpython-311-darwin.so',
   'EXTENSION'),
  ('lib-dynload/_sha512.cpython-311-darwin.so',
   '/Library/Frameworks/Python.framework/Versions/3.11/lib/python3.11/lib-dynload/_sha512.cpython-311-darwin.so',
   'EXTENSION'),
  ('lib-dynload/_sha256.cpython-311-darwin.so',
   '/Library/Frameworks/Python.framework/Versions/3.11/lib/python3.11/lib-dynload/_sha256.cpython-311-darwin.so',
   'EXTENSION'),
  ('lib-dynload/_md5.cpython-311-darwin.so',
   '/Library/Frameworks/Python.framework/Versions/3.11/lib/python3.11/lib-dynload/_md5.cpython-311-darwin.so',
   'EXTENSION'),
  ('lib-dynload/_sha1.cpython-311-darwin.so',
   '/Library/Frameworks/Python.framework/Versions/3.11/lib/python3.11/lib-dynload/_sha1.cpython-311-darwin.so',
   'EXTENSION'),
  ('lib-dynload/_bisect.cpython-311-darwin.so',
   '/Library/Frameworks/Python.framework/Versions/3.11/lib/python3.11/lib-dynload/_bisect.cpython-311-darwin.so',
   'EXTENSION'),
  ('lib-dynload/_heapq.cpython-311-darwin.so',
   '/Library/Frameworks/Python.framework/Versions/3.11/lib/python3.11/lib-dynload/_heapq.cpython-311-darwin.so',
   'EXTENSION'),
  ('lib-dynload/_posixsubprocess.cpython-311-darwin.so',
   '/Library/Frameworks/Python.framework/Versions/3.11/lib/python3.11/lib-dynload/_posixsubprocess.cpython-311-darwin.so',
   'EXTENSION'),
  ('lib-dynload/fcntl.cpython-311-darwin.so',
   '/Library/Frameworks/Python.framework/Versions/3.11/lib/python3.11/lib-dynload/fcntl.cpython-311-darwin.so',
   'EXTENSION'),
  ('lib-dynload/_statistics.cpython-311-darwin.so',
   '/Library/Frameworks/Python.framework/Versions/3.11/lib/python3.11/lib-dynload/_statistics.cpython-311-darwin.so',
   'EXTENSION'),
  ('lib-dynload/_contextvars.cpython-311-darwin.so',
   '/Library/Frameworks/Python.framework/Versions/3.11/lib/python3.11/lib-dynload/_contextvars.cpython-311-darwin.so',
   'EXTENSION'),
  ('lib-dynload/_decimal.cpython-311-darwin.so',
   '/Library/Frameworks/Python.framework/Versions/3.11/lib/python3.11/lib-dynload/_decimal.cpython-311-darwin.so',
   'EXTENSION'),
  ('lib-dynload/_random.cpython-311-darwin.so',
   '/Library/Frameworks/Python.framework/Versions/3.11/lib/python3.11/lib-dynload/_random.cpython-311-darwin.so',
   'EXTENSION'),
  ('lib-dynload/_json.cpython-311-darwin.so',
   '/Library/Frameworks/Python.framework/Versions/3.11/lib/python3.11/lib-dynload/_json.cpython-311-darwin.so',
   'EXTENSION'),
  ('lib-dynload/_queue.cpython-311-darwin.so',
   '/Library/Frameworks/Python.framework/Versions/3.11/lib/python3.11/lib-dynload/_queue.cpython-311-darwin.so',
   'EXTENSION'),
  ('_cffi_backend.cpython-311-darwin.so',
   '/Library/Frameworks/Python.framework/Versions/3.11/lib/python3.11/site-packages/_cffi_backend.cpython-311-darwin.so',
   'EXTENSION'),
  ('cryptography/hazmat/bindings/_openssl.abi3.so',
   '/Library/Frameworks/Python.framework/Versions/3.11/lib/python3.11/site-packages/cryptography/hazmat/bindings/_openssl.abi3.so',
   'EXTENSION'),
  ('cryptography/hazmat/bindings/_rust.abi3.so',
   '/Library/Frameworks/Python.framework/Versions/3.11/lib/python3.11/site-packages/cryptography/hazmat/bindings/_rust.abi3.so',
   'EXTENSION'),
  ('libssl.1.1.dylib',
   '/Library/Frameworks/Python.framework/Versions/3.11/lib/libssl.1.1.dylib',
   'BINARY'),
  ('libcrypto.1.1.dylib',
   '/Library/Frameworks/Python.framework/Versions/3.11/lib/libcrypto.1.1.dylib',
   'BINARY')],
 [],
 [],
 [('base_library.zip',
   '/Users/shurf/tmp_mail/build/tmp_mail/base_library.zip',
   'DATA'),
  ('cryptography-39.0.0.dist-info/REQUESTED',
   '/Library/Frameworks/Python.framework/Versions/3.11/lib/python3.11/site-packages/cryptography-39.0.0.dist-info/REQUESTED',
   'DATA'),
  ('cryptography-39.0.0.dist-info/LICENSE.APACHE',
   '/Library/Frameworks/Python.framework/Versions/3.11/lib/python3.11/site-packages/cryptography-39.0.0.dist-info/LICENSE.APACHE',
   'DATA'),
  ('cryptography-39.0.0.dist-info/LICENSE',
   '/Library/Frameworks/Python.framework/Versions/3.11/lib/python3.11/site-packages/cryptography-39.0.0.dist-info/LICENSE',
   'DATA'),
  ('certifi/cacert.pem',
   '/Library/Frameworks/Python.framework/Versions/3.11/lib/python3.11/site-packages/certifi/cacert.pem',
   'DATA'),
  ('cryptography-39.0.0.dist-info/RECORD',
   '/Library/Frameworks/Python.framework/Versions/3.11/lib/python3.11/site-packages/cryptography-39.0.0.dist-info/RECORD',
   'DATA'),
  ('cryptography-39.0.0.dist-info/METADATA',
   '/Library/Frameworks/Python.framework/Versions/3.11/lib/python3.11/site-packages/cryptography-39.0.0.dist-info/METADATA',
   'DATA'),
  ('cryptography-39.0.0.dist-info/WHEEL',
   '/Library/Frameworks/Python.framework/Versions/3.11/lib/python3.11/site-packages/cryptography-39.0.0.dist-info/WHEEL',
   'DATA'),
  ('cryptography-39.0.0.dist-info/top_level.txt',
   '/Library/Frameworks/Python.framework/Versions/3.11/lib/python3.11/site-packages/cryptography-39.0.0.dist-info/top_level.txt',
   'DATA'),
  ('cryptography-39.0.0.dist-info/INSTALLER',
   '/Library/Frameworks/Python.framework/Versions/3.11/lib/python3.11/site-packages/cryptography-39.0.0.dist-info/INSTALLER',
   'DATA'),
  ('cryptography-39.0.0.dist-info/LICENSE.BSD',
   '/Library/Frameworks/Python.framework/Versions/3.11/lib/python3.11/site-packages/cryptography-39.0.0.dist-info/LICENSE.BSD',
   'DATA'),
  ('cryptography-39.0.0.dist-info/LICENSE.PSF',
   '/Library/Frameworks/Python.framework/Versions/3.11/lib/python3.11/site-packages/cryptography-39.0.0.dist-info/LICENSE.PSF',
   'DATA')],
 [])
