([('tmp_mail', '/Users/shurf/tmp_mail/build/tmp_mail/tmp_mail', 'EXECUTABLE'),
  ('lib-dynload/_struct.cpython-311-darwin.so',
   '/Library/Frameworks/Python.framework/Versions/3.11/lib/python3.11/lib-dynload/_struct.cpython-311-darwin.so',
   'EXTENSION'),
  ('lib-dynload/zlib.cpython-311-darwin.so',
   '/Library/Frameworks/Python.framework/Versions/3.11/lib/python3.11/lib-dynload/zlib.cpython-311-darwin.so',
   'EXTENSION'),
  ('Python',
   '/Library/Frameworks/Python.framework/Versions/3.11/Python',
   'BINARY'),
  ('lib-dynload/_typing.cpython-311-darwin.so',
   '/Library/Frameworks/Python.framework/Versions/3.11/lib/python3.11/lib-dynload/_typing.cpython-311-darwin.so',
   'EXTENSION'),
  ('lib-dynload/grp.cpython-311-darwin.so',
   '/Library/Frameworks/Python.framework/Versions/3.11/lib/python3.11/lib-dynload/grp.cpython-311-darwin.so',
   'EXTENSION'),
  ('lib-dynload/_lzma.cpython-311-darwin.so',
   '/Library/Frameworks/Python.framework/Versions/3.11/lib/python3.11/lib-dynload/_lzma.cpython-311-darwin.so',
   'EXTENSION'),
  ('lib-dynload/_bz2.cpython-311-darwin.so',
   '/Library/Frameworks/Python.framework/Versions/3.11/lib/python3.11/lib-dynload/_bz2.cpython-311-darwin.so',
   'EXTENSION'),
  ('lib-dynload/_datetime.cpython-311-darwin.so',
   '/Library/Frameworks/Python.framework/Versions/3.11/lib/python3.11/lib-dynload/_datetime.cpython-311-darwin.so',
   'EXTENSION'),
  ('lib-dynload/math.cpython-311-darwin.so',
   '/Library/Frameworks/Python.framework/Versions/3.11/lib/python3.11/lib-dynload/math.cpython-311-darwin.so',
   'EXTENSION'),
  ('lib-dynload/array.cpython-311-darwin.so',
   '/Library/Frameworks/Python.framework/Versions/3.11/lib/python3.11/lib-dynload/array.cpython-311-darwin.so',
   'EXTENSION'),
  ('lib-dynload/select.cpython-311-darwin.so',
   '/Library/Frameworks/Python.framework/Versions/3.11/lib/python3.11/lib-dynload/select.cpython-311-darwin.so',
   'EXTENSION'),
  ('lib-dynload/_socket.cpython-311-darwin.so',
   '/Library/Frameworks/Python.framework/Versions/3.11/lib/python3.11/lib-dynload/_socket.cpython-311-darwin.so',
   'EXTENSION'),
  ('lib-dynload/binascii.cpython-311-darwin.so',
   '/Library/Frameworks/Python.framework/Versions/3.11/lib/python3.11/lib-dynload/binascii.cpython-311-darwin.so',
   'EXTENSION'),
  ('lib-dynload/_csv.cpython-311-darwin.so',
   '/Library/Frameworks/Python.framework/Versions/3.11/lib/python3.11/lib-dynload/_csv.cpython-311-darwin.so',
   'EXTENSION'),
  ('lib-dynload/resource.cpython-311-darwin.so',
   '/Library/Frameworks/Python.framework/Versions/3.11/lib/python3.11/lib-dynload/resource.cpython-311-darwin.so',
   'EXTENSION'),
  ('lib-dynload/_opcode.cpython-311-darwin.so',
   '/Library/Frameworks/Python.framework/Versions/3.11/lib/python3.11/lib-dynload/_opcode.cpython-311-darwin.so',
   'EXTENSION'),
  ('lib-dynload/_multibytecodec.cpython-311-darwin.so',
   '/Library/Frameworks/Python.framework/Versions/3.11/lib/python3.11/lib-dynload/_multibytecodec.cpython-311-darwin.so',
   'EXTENSION'),
  ('lib-dynload/_codecs_jp.cpython-311-darwin.so',
   '/Library/Frameworks/Python.framework/Versions/3.11/lib/python3.11/lib-dynload/_codecs_jp.cpython-311-darwin.so',
   'EXTENSION'),
  ('lib-dynload/_codecs_kr.cpython-311-darwin.so',
   '/Library/Frameworks/Python.framework/Versions/3.11/lib/python3.11/lib-dynload/_codecs_kr.cpython-311-darwin.so',
   'EXTENSION'),
  ('lib-dynload/_codecs_iso2022.cpython-311-darwin.so',
   '/Library/Frameworks/Python.framework/Versions/3.11/lib/python3.11/lib-dynload/_codecs_iso2022.cpython-311-darwin.so',
   'EXTENSION'),
  ('lib-dynload/unicodedata.cpython-311-darwin.so',
   '/Library/Frameworks/Python.framework/Versions/3.11/lib/python3.11/lib-dynload/unicodedata.cpython-311-darwin.so',
   'EXTENSION'),
  ('lib-dynload/_codecs_cn.cpython-311-darwin.so',
   '/Library/Frameworks/Python.framework/Versions/3.11/lib/python3.11/lib-dynload/_codecs_cn.cpython-311-darwin.so',
   'EXTENSION'),
  ('lib-dynload/_codecs_tw.cpython-311-darwin.so',
   '/Library/Frameworks/Python.framework/Versions/3.11/lib/python3.11/lib-dynload/_codecs_tw.cpython-311-darwin.so',
   'EXTENSION'),
  ('lib-dynload/_codecs_hk.cpython-311-darwin.so',
   '/Library/Frameworks/Python.framework/Versions/3.11/lib/python3.11/lib-dynload/_codecs_hk.cpython-311-darwin.so',
   'EXTENSION'),
  ('lib-dynload/_scproxy.cpython-311-darwin.so',
   '/Library/Frameworks/Python.framework/Versions/3.11/lib/python3.11/lib-dynload/_scproxy.cpython-311-darwin.so',
   'EXTENSION'),
  ('lib-dynload/termios.cpython-311-darwin.so',
   '/Library/Frameworks/Python.framework/Versions/3.11/lib/python3.11/lib-dynload/termios.cpython-311-darwin.so',
   'EXTENSION'),
  ('lib-dynload/_pickle.cpython-311-darwin.so',
   '/Library/Frameworks/Python.framework/Versions/3.11/lib/python3.11/lib-dynload/_pickle.cpython-311-darwin.so',
   'EXTENSION'),
  ('lib-dynload/_ssl.cpython-311-darwin.so',
   '/Library/Frameworks/Python.framework/Versions/3.11/lib/python3.11/lib-dynload/_ssl.cpython-311-darwin.so',
   'EXTENSION'),
  ('lib-dynload/_hashlib.cpython-311-darwin.so',
   '/Library/Frameworks/Python.framework/Versions/3.11/lib/python3.11/lib-dynload/_hashlib.cpython-311-darwin.so',
   'EXTENSION'),
  ('lib-dynload/_sha3.cpython-311-darwin.so',
   '/Library/Frameworks/Python.framework/Versions/3.11/lib/python3.11/lib-dynload/_sha3.cpython-311-darwin.so',
   'EXTENSION'),
  ('lib-dynload/_blake2.cpython-311-darwin.so',
   '/Library/Frameworks/Python.framework/Versions/3.11/lib/python3.11/lib-dynload/_blake2.cpython-311-darwin.so',
   'EXTENSION'),
  ('lib-dynload/_sha512.cpython-311-darwin.so',
   '/Library/Frameworks/Python.framework/Versions/3.11/lib/python3.11/lib-dynload/_sha512.cpython-311-darwin.so',
   'EXTENSION'),
  ('lib-dynload/_sha256.cpython-311-darwin.so',
   '/Library/Frameworks/Python.framework/Versions/3.11/lib/python3.11/lib-dynload/_sha256.cpython-311-darwin.so',
   'EXTENSION'),
  ('lib-dynload/_md5.cpython-311-darwin.so',
   '/Library/Frameworks/Python.framework/Versions/3.11/lib/python3.11/lib-dynload/_md5.cpython-311-darwin.so',
   'EXTENSION'),
  ('lib-dynload/_sha1.cpython-311-darwin.so',
   '/Library/Frameworks/Python.framework/Versions/3.11/lib/python3.11/lib-dynload/_sha1.cpython-311-darwin.so',
   'EXTENSION'),
  ('lib-dynload/_bisect.cpython-311-darwin.so',
   '/Library/Frameworks/Python.framework/Versions/3.11/lib/python3.11/lib-dynload/_bisect.cpython-311-darwin.so',
   'EXTENSION'),
  ('lib-dynload/_heapq.cpython-311-darwin.so',
   '/Library/Frameworks/Python.framework/Versions/3.11/lib/python3.11/lib-dynload/_heapq.cpython-311-darwin.so',
   'EXTENSION'),
  ('lib-dynload/_posixsubprocess.cpython-311-darwin.so',
   '/Library/Frameworks/Python.framework/Versions/3.11/lib/python3.11/lib-dynload/_posixsubprocess.cpython-311-darwin.so',
   'EXTENSION'),
  ('lib-dynload/fcntl.cpython-311-darwin.so',
   '/Library/Frameworks/Python.framework/Versions/3.11/lib/python3.11/lib-dynload/fcntl.cpython-311-darwin.so',
   'EXTENSION'),
  ('lib-dynload/_statistics.cpython-311-darwin.so',
   '/Library/Frameworks/Python.framework/Versions/3.11/lib/python3.11/lib-dynload/_statistics.cpython-311-darwin.so',
   'EXTENSION'),
  ('lib-dynload/_contextvars.cpython-311-darwin.so',
   '/Library/Frameworks/Python.framework/Versions/3.11/lib/python3.11/lib-dynload/_contextvars.cpython-311-darwin.so',
   'EXTENSION'),
  ('lib-dynload/_decimal.cpython-311-darwin.so',
   '/Library/Frameworks/Python.framework/Versions/3.11/lib/python3.11/lib-dynload/_decimal.cpython-311-darwin.so',
   'EXTENSION'),
  ('lib-dynload/_random.cpython-311-darwin.so',
   '/Library/Frameworks/Python.framework/Versions/3.11/lib/python3.11/lib-dynload/_random.cpython-311-darwin.so',
   'EXTENSION'),
  ('lib-dynload/_json.cpython-311-darwin.so',
   '/Library/Frameworks/Python.framework/Versions/3.11/lib/python3.11/lib-dynload/_json.cpython-311-darwin.so',
   'EXTENSION'),
  ('lib-dynload/_queue.cpython-311-darwin.so',
   '/Library/Frameworks/Python.framework/Versions/3.11/lib/python3.11/lib-dynload/_queue.cpython-311-darwin.so',
   'EXTENSION'),
  ('_cffi_backend.cpython-311-darwin.so',
   '/Library/Frameworks/Python.framework/Versions/3.11/lib/python3.11/site-packages/_cffi_backend.cpython-311-darwin.so',
   'EXTENSION'),
  ('cryptography/hazmat/bindings/_openssl.abi3.so',
   '/Library/Frameworks/Python.framework/Versions/3.11/lib/python3.11/site-packages/cryptography/hazmat/bindings/_openssl.abi3.so',
   'EXTENSION'),
  ('cryptography/hazmat/bindings/_rust.abi3.so',
   '/Library/Frameworks/Python.framework/Versions/3.11/lib/python3.11/site-packages/cryptography/hazmat/bindings/_rust.abi3.so',
   'EXTENSION'),
  ('libssl.1.1.dylib',
   '/Library/Frameworks/Python.framework/Versions/3.11/lib/libssl.1.1.dylib',
   'BINARY'),
  ('libcrypto.1.1.dylib',
   '/Library/Frameworks/Python.framework/Versions/3.11/lib/libcrypto.1.1.dylib',
   'BINARY'),
  ('base_library.zip',
   '/Users/shurf/tmp_mail/build/tmp_mail/base_library.zip',
   'DATA'),
  ('cryptography-39.0.0.dist-info/REQUESTED',
   '/Library/Frameworks/Python.framework/Versions/3.11/lib/python3.11/site-packages/cryptography-39.0.0.dist-info/REQUESTED',
   'DATA'),
  ('cryptography-39.0.0.dist-info/LICENSE.APACHE',
   '/Library/Frameworks/Python.framework/Versions/3.11/lib/python3.11/site-packages/cryptography-39.0.0.dist-info/LICENSE.APACHE',
   'DATA'),
  ('cryptography-39.0.0.dist-info/LICENSE',
   '/Library/Frameworks/Python.framework/Versions/3.11/lib/python3.11/site-packages/cryptography-39.0.0.dist-info/LICENSE',
   'DATA'),
  ('certifi/cacert.pem',
   '/Library/Frameworks/Python.framework/Versions/3.11/lib/python3.11/site-packages/certifi/cacert.pem',
   'DATA'),
  ('cryptography-39.0.0.dist-info/RECORD',
   '/Library/Frameworks/Python.framework/Versions/3.11/lib/python3.11/site-packages/cryptography-39.0.0.dist-info/RECORD',
   'DATA'),
  ('cryptography-39.0.0.dist-info/METADATA',
   '/Library/Frameworks/Python.framework/Versions/3.11/lib/python3.11/site-packages/cryptography-39.0.0.dist-info/METADATA',
   'DATA'),
  ('cryptography-39.0.0.dist-info/WHEEL',
   '/Library/Frameworks/Python.framework/Versions/3.11/lib/python3.11/site-packages/cryptography-39.0.0.dist-info/WHEEL',
   'DATA'),
  ('cryptography-39.0.0.dist-info/top_level.txt',
   '/Library/Frameworks/Python.framework/Versions/3.11/lib/python3.11/site-packages/cryptography-39.0.0.dist-info/top_level.txt',
   'DATA'),
  ('cryptography-39.0.0.dist-info/INSTALLER',
   '/Library/Frameworks/Python.framework/Versions/3.11/lib/python3.11/site-packages/cryptography-39.0.0.dist-info/INSTALLER',
   'DATA'),
  ('cryptography-39.0.0.dist-info/LICENSE.BSD',
   '/Library/Frameworks/Python.framework/Versions/3.11/lib/python3.11/site-packages/cryptography-39.0.0.dist-info/LICENSE.BSD',
   'DATA'),
  ('cryptography-39.0.0.dist-info/LICENSE.PSF',
   '/Library/Frameworks/Python.framework/Versions/3.11/lib/python3.11/site-packages/cryptography-39.0.0.dist-info/LICENSE.PSF',
   'DATA')],)
