('/Users/shurf/tmp_mail/build/tmp_mail/tmp_mail',
 True,
 False,
 True,
 None,
 None,
 False,
 False,
 None,
 True,
 True,
 False,
 'x86_64',
 None,
 None,
 '/Users/shurf/tmp_mail/build/tmp_mail/tmp_mail.pkg',
 [('PYZ-00.pyz', '/Users/shurf/tmp_mail/build/tmp_mail/PYZ-00.pyz', 'PYZ'),
  ('struct',
   '/Users/shurf/tmp_mail/build/tmp_mail/localpycs/struct.pyc',
   'PYMODULE'),
  ('pyimod01_archive',
   '/Users/shurf/tmp_mail/build/tmp_mail/localpycs/pyimod01_archive.pyc',
   'PYMODULE'),
  ('pyimod02_importers',
   '/Users/shurf/tmp_mail/build/tmp_mail/localpycs/pyimod02_importers.pyc',
   'PYMODULE'),
  ('pyimod03_ctypes',
   '/Users/shurf/tmp_mail/build/tmp_mail/localpycs/pyimod03_ctypes.pyc',
   'PYMODULE'),
  ('pyiboot01_bootstrap',
   '/Library/Frameworks/Python.framework/Versions/3.11/lib/python3.11/site-packages/PyInstaller/loader/pyiboot01_bootstrap.py',
   'PYSOURCE'),
  ('pyi_rth_inspect',
   '/Library/Frameworks/Python.framework/Versions/3.11/lib/python3.11/site-packages/PyInstaller/hooks/rthooks/pyi_rth_inspect.py',
   'PYSOURCE'),
  ('tmp_mail', '/Users/shurf/tmp_mail/tmp_mail.py', 'PYSOURCE'),
  ('lib-dynload/_struct.cpython-311-darwin.so',
   '/Library/Frameworks/Python.framework/Versions/3.11/lib/python3.11/lib-dynload/_struct.cpython-311-darwin.so',
   'EXTENSION'),
  ('lib-dynload/zlib.cpython-311-darwin.so',
   '/Library/Frameworks/Python.framework/Versions/3.11/lib/python3.11/lib-dynload/zlib.cpython-311-darwin.so',
   'EXTENSION')],
 [],
 False,
 False,
 1693298124,
 [('run',
   '/Library/Frameworks/Python.framework/Versions/3.11/lib/python3.11/site-packages/PyInstaller/bootloader/Darwin-64bit/run',
   'EXECUTABLE')])
